id;name
1;Consultant
2;Optional
3;sensor Namibia magenta
4;Solutions Lodge
5;Account
6;Practical panel Wyoming
7;clear-thinking primary gold
8;leverage
9;Chicken yellow Kong
10;well-modulated Sports Investor
