id;model;licence_plate;first_registration
1;Gorgeous;invoice programming;2022-07-07
2;impactful proactive;Computers Soap the;2022-07-08
3;Plastic SCSI;transition Arab;2022-07-07
4;recontextualize Jewelery;Incredible;2022-07-08
5;Integration;Branding;2022-07-07
6;bleeding-edge Vista partnerships;Engineer;2022-07-07
7;Gorgeous calculate Coordinator;Sharable Liaison;2022-07-08
8;Associate teal;Junctions Cotton Small;2022-07-07
9;hacking Chicken;optical AGP reboot;2022-07-08
10;Delaware;Mouse Dong Robust;2022-07-07
