{
  "applications": "*",
  "changelogDate": "20220708130844",
  "dto": "no",
  "embedded": false,
  "entityTableName": "brand",
  "fields": [
    {
      "fieldName": "name",
      "fieldType": "String",
      "fieldValidateRules": ["required"]
    }
  ],
  "fluentMethods": true,
  "jpaMetamodelFiltering": false,
  "name": "Brand",
  "pagination": "pagination",
  "readOnly": false,
  "relationships": [
    {
      "otherEntityName": "vehicule",
      "otherEntityRelationshipName": "brand",
      "relationshipName": "vehicule",
      "relationshipType": "one-to-many"
    }
  ],
  "service": "no"
}
