{
  "changelogDate": "20220708133858",
  "fields": [
    {
      "fieldName": "name",
      "fieldType": "String",
      "fieldValidateRules": ["required"]
    }
  ],
  "name": "Garage",
  "pagination": "pagination",
  "readOnly": false,
  "relationships": [],
  "service": "no"
}
